d_mm,N,t_s,dd_mm
0,8943,60,0.005
0.1,4784,60,0.01
0.35,2191,60,0.01
0.65,1071,60,0.01
0.2,3167,60,0.01
0.3,2354,60,0.01
0.4,1780,60,0.01
0.55,1275,60,0.02
0.75,836,60,0.03
0.83,1081,92,0.05
1.1,1006,122,0.05
2.1,1002,540,0.05
3.1,1004,990,0.05

\begin{table}[]
    \begin{tabular}{lll}
        d[mm] & N    & t[s] \\
        $0\pm 0.005$     & 8943 & 60    \\
        $0.1\pm 0.01$    & 4784 & 60    \\
        $0.35\pm 0.01$   & 2191 & 60    \\
        $0.65\pm 0.01$   & 1071 & 60    \\
        $0.2\pm 0.01$    & 3167 & 60    \\
        $0.3\pm 0.01$    & 2354 & 60    \\
        $0.4\pm 0.01$    & 1780 & 60    \\
        $0.55\pm 0.02$   & 1275 & 60    \\
        $0.75\pm 0.03$   & 836  & 60    \\
        $0.83\pm 0.05$   & 1081 & 92    \\
        $1.1\pm 0.05$    & 1006 & 122   \\
        $2.1\pm 0.05$    & 1002 & 540   \\
        $3.1\pm 0.05$    & 1004 & 990  
    \end{tabular}
\end{table}
\begin{table}[]
    \begin{tabular}{llll}
        &A        & $t_1$ & $t_2$ \\
        A&1.88e+00 &-2.76e-02 &-9.53e-01 \\
        $t_1$&-2.76e-02 & 8.32e-04 & 8.89e-03 \\
        $t_2$&-9.53e-01 & 8.89e-03 & 1.26e+00 \\
    \end{tabular}
\end{table}